{
    "KPlugin": {
        "Authors": [
            {
                "Email": "trueg@k3b.org",
                "Name": "Sebastian Trueg",
                "Name[bg]": "Sebastian Trueg",
                "Name[ca@valencia]": "Sebastian Trueg",
                "Name[ca]": "Sebastian Trueg",
                "Name[cs]": "Sebastian Trueg",
                "Name[da]": "Sebastian Trueg",
                "Name[de]": "Sebastian Trueg",
                "Name[el]": "Sebastian Trueg",
                "Name[en_GB]": "Sebastian Trueg",
                "Name[es]": "Sebastian Trueg",
                "Name[eu]": "Sebastian Trueg",
                "Name[fi]": "Sebastian Trueg",
                "Name[fr]": "Sebastian Trueg",
                "Name[hu]": "Sebastian Trueg",
                "Name[ia]": "Sebastian Trueg",
                "Name[id]": "Sebastian Trueg",
                "Name[is]": "Sebastian Trueg",
                "Name[it]": "Sebastian Trueg",
                "Name[ka]": "Sebastian Trueg",
                "Name[ko]": "Sebastian Trueg",
                "Name[nl]": "Sebastian Trueg",
                "Name[pl]": "Sebastian Trueg",
                "Name[pt]": "Sebastian Trueg",
                "Name[pt_BR]": "Sebastian Trueg",
                "Name[ru]": "Sebastian Trueg",
                "Name[sk]": "Sebastian Trueg",
                "Name[sl]": "Sebastian Trueg",
                "Name[sv]": "Sebastian Trueg",
                "Name[tr]": "Sebastian Trueg",
                "Name[uk]": "Sebastian Trueg",
                "Name[x-test]": "xxSebastian Truegxx",
                "Name[zh_CN]": "Sebastian Trueg",
                "Name[zh_TW]": "Sebastian Trueg"
            }
        ],
        "Category": "AudioDecoder",
        "Description": "Decoding module to decode Musepack audio files",
        "Description[ar]": "وحدة فكّ ترميز لفكّ ترميز ملفّات Musepack الصّوتيّة",
        "Description[bg]": "Декодер за звукови файлове Musepack",
        "Description[bs]": "Modul za dekodiranje Musepack audio datoteka",
        "Description[ca@valencia]": "Mòdul de descodificació per a descodificar fitxers d'àudio Musepack",
        "Description[ca]": "Mòdul de descodificació per a descodificar fitxers d'àudio Musepack",
        "Description[cs]": "Modul pro dekódování souborů Musepack",
        "Description[csb]": "Mòdul dekòdërëjący lopczi Musepack",
        "Description[da]": "Dekodermodul til dekodning af Musepack-lydfiler",
        "Description[de]": "Dekodierungsmodul für Musepack-Audio-Dateien",
        "Description[el]": "Άρθρωμα αποκωδικοποίησης αρχείων ήχου Musepack",
        "Description[en_GB]": "Decoding module to decode Musepack audio files",
        "Description[es]": "Descodificando módulo para descodificar archivos de audio Musepack",
        "Description[et]": "Musepacki helifailide dekodeerimise moodul",
        "Description[eu]": "Musepack audio fitxategiak deskodetzeko modulua",
        "Description[fi]": "Musepack-tiedostojen purkumoduuli",
        "Description[fr]": "Module de décodage pour des fichiers audio au format « Musepack »",
        "Description[ga]": "Modúl díchódaithe a dhíchódaíonn comhaid Musepack",
        "Description[gl]": "Módulo de descodificación de ficheiros de son Musepack",
        "Description[he]": "מודול המפענח קבצי שמע Musepack",
        "Description[hne]": "म्यूजपैक फाइल ल डिकोड करे बर डिकोडिंग माड्यूल",
        "Description[hr]": "Dekoderski modul za dekodiranje Musepack audio datoteka",
        "Description[hu]": "Dekódolómodul Musepack-hangfájlok dekódolásához",
        "Description[ia]": "Modulo decifrante per decifrar files audio Musepack",
        "Description[id]": "Modul decoding untuk mendekode file-file audio Musepack",
        "Description[is]": "Afkóðunareining til að afkóða Musepack-hljóðskrár",
        "Description[it]": "Decodifica modulare per i file audio Musepack",
        "Description[ja]": "Musepack オーディオファイルをデコードするモジュール",
        "Description[ka]": "დეკოდერის მოდული MusePack-ის აუდიო ფაილების დეკოდირებისთვის",
        "Description[kk]": "Museepack дыбыс файлдарының декодер модулі",
        "Description[km]": "ម៉ូឌុល​ឌិកូដ សម្រាប់​ឌិកូដ​ឯកសារ​អូឌីយ៉ូ Musepack",
        "Description[ko]": "Musepack 오디오 파일 디코딩 모듈",
        "Description[lt]": "Dekodavimo modulis dekoduoti Musepack audio failus",
        "Description[lv]": "Dekodēšanas modulis Mousepack audio failiem",
        "Description[mr]": "Musepack फाईल्स डीकोड करण्याकरिता डीकोडिंग विभाग",
        "Description[nb]": "Modul som dekoder Musepack lydfiler",
        "Description[nds]": "Dekodeermoduul för \"Musepack\"-Klangdateien",
        "Description[nl]": "Module voor het decoderen van Musepack-audiobestanden",
        "Description[nn]": "Modul for dekoding av Musepack-lydfiler",
        "Description[pl]": "Moduł dekodujący pliki audio Musepack",
        "Description[pt]": "Módulo de descodificação de ficheiros de áudio do Musepack",
        "Description[pt_BR]": "Módulo de decodificação de arquivos de áudio Musepack",
        "Description[ro]": "Modul de decodare pentru decodarea fișierelor audio Musepack",
        "Description[ru]": "Модуль декодирования файлов Musepack",
        "Description[sk]": "Modul pre dekódovanie zvukových súborov Musepack",
        "Description[sl]": "Dekodirni modul za dekodiranje zvočnih datotek Musepack",
        "Description[sr@ijekavian]": "Модул за декодирање мјузпак звучних фајлова",
        "Description[sr@ijekavianlatin]": "Modul za dekodiranje Musepack zvučnih fajlova",
        "Description[sr@latin]": "Modul za dekodiranje Musepack zvučnih fajlova",
        "Description[sr]": "Модул за декодирање мјузпак звучних фајлова",
        "Description[sv]": "Avkodningsmodul för att avkoda Musepack-ljudfiler",
        "Description[th]": "มอดูลถอดรหัสแฟ้มเสียงต่าง ๆ ของ Musepack",
        "Description[tr]": "Musepack ses dosyalarının kodlarını çözen Kod çözme modülü",
        "Description[uk]": "Модуль декодування звукових файлів Musepack",
        "Description[x-test]": "xxDecoding module to decode Musepack audio filesxx",
        "Description[zh_CN]": "用于解码 Musepack 音频文件的解码模块",
        "Description[zh_TW]": "解碼 Musepack 音效檔格式的模組",
        "EnabledByDefault": true,
        "Icon": "preferences-plugin",
        "Id": "k3bmpcdecoder",
        "License": "GPL",
        "Name": "K3b Musepack Decoder",
        "Name[bg]": "Musepack декодер за K3b",
        "Name[bs]": "Musepack dekoder za K3b",
        "Name[ca@valencia]": "Descodificador Musepack de K3b",
        "Name[ca]": "Descodificador Musepack del K3b",
        "Name[cs]": "Musepack dekodér K3b",
        "Name[csb]": "Dekòder Musepack dlô K3b",
        "Name[da]": "K3b Musepack-dekoder",
        "Name[de]": "Musepack-Dekodierer",
        "Name[el]": "Αποκωδικοποιητής Musepack του K3b",
        "Name[en_GB]": "K3b Musepack Decoder",
        "Name[es]": "Descodificador Musepack de K3b",
        "Name[et]": "K3b Musepacki dekodeerija",
        "Name[eu]": "K3b Musepack deskodetzailea",
        "Name[fi]": "K3b:n Musepack-purkaja",
        "Name[fr]": "Décodeur « Musepack » pour K3b",
        "Name[ga]": "Díchódóir Musepack K3b",
        "Name[gl]": "Descodificador de Musepack para K3b",
        "Name[he]": "מפענח Musepack של K3b",
        "Name[hne]": "के3बी म्यूजपैक डिकोडर",
        "Name[hr]": "K3b-ov dekoder Musepacka",
        "Name[hu]": "Musepack-dekódoló a K3b-hez",
        "Name[ia]": "Decifrator Musepack de K3b",
        "Name[id]": "Dekoder Musepack K3b",
        "Name[is]": "K3b Musepack afkóðari",
        "Name[it]": "Decodificatore Musepack di K3b",
        "Name[ja]": "K3b Musepack デコーダ",
        "Name[ka]": "K3b Musepack დეკოდერი",
        "Name[kk]": "K3b Musepack декодері",
        "Name[km]": "ឌិកូឌ័រ​ Musepack របស់ K3b",
        "Name[ko]": "K3b Musepack 디코더",
        "Name[lt]": "K3b Musepack dekoderis",
        "Name[lv]": "K3b Musepack dekoderis",
        "Name[mr]": "के3बी Musepack डीकोडर",
        "Name[nb]": "K3b Musepack-dekoder",
        "Name[nds]": "Musepack-Dekoderer för K3b",
        "Name[nl]": "K3b Musepack-decoder",
        "Name[nn]": "Musepack-dekodar for K3b",
        "Name[pa]": "K3b Musepack ਡੀਕੋਡਰ",
        "Name[pl]": "Dekoder Musepack dla K3b",
        "Name[pt]": "Descodificador de Musepack do K3b",
        "Name[pt_BR]": "Decodificador Musepack do K3b",
        "Name[ro]": "Decodor K3b Musepack",
        "Name[ru]": "Декодер Musepack",
        "Name[sk]": "Musepack dekodér pre K3b",
        "Name[sl]": "K3b-jev dekodirnik Musepack",
        "Name[sr@ijekavian]": "Мјузпак декодер за К3б",
        "Name[sr@ijekavianlatin]": "Musepack dekoder za K3b",
        "Name[sr@latin]": "Musepack dekoder za K3b",
        "Name[sr]": "Мјузпак декодер за К3б",
        "Name[sv]": "K3b Musepack-avkodare",
        "Name[th]": "K3b - ตัวถอดรหัส Musepack",
        "Name[tr]": "K3b Musepack Çözücü",
        "Name[uk]": "Декодер Musepack для K3b",
        "Name[x-test]": "xxK3b Musepack Decoderxx",
        "Name[zh_CN]": "K3b Musepack 解码器",
        "Name[zh_TW]": "K3b Musepack 解碼器",
        "Version": "4.0"
    }
}
